[ansible@control lesson1]$ curl -l http://node1
<html>
  <head>
    <title>EPAM_S9_HW1</title>
  </head>
  <body>
  <h1>Welcome to my web server<h1>
  </body>
</html>
[ansible@control lesson1]$ ansible-playbook -i inventory uninstall-httpd.yml

PLAY [EPAM_S9_HW2_uninstall_httpd] *************************************************************************************************************************************************************************

TASK [Gathering Facts] *************************************************************************************************************************************************************************************
ok: [node1.example.com]

TASK [Stop_httpd] ******************************************************************************************************************************************************************************************
changed: [node1.example.com]

TASK [Uninstall_httpd] *************************************************************************************************************************************************************************************
changed: [node1.example.com]

TASK [Remove_index_html] ***********************************************************************************************************************************************************************************
changed: [node1.example.com]

RUNNING HANDLER [Setup_firewalld] **************************************************************************************************************************************************************************
changed: [node1.example.com]

RUNNING HANDLER [Restart_firewalld] ************************************************************************************************************************************************************************
changed: [node1.example.com]

PLAY RECAP *************************************************************************************************************************************************************************************************
node1.example.com          : ok=6    changed=5    unreachable=0    failed=0    skipped=0    rescued=0    ignored=0

[ansible@control lesson1]$ curl -l http://node1
curl: (7) Failed connect to node1:80; No route to host
[ansible@control lesson1]$